Library\Bee\artifacts\mvdfrm\Unity.2D.Animation.Editor.ref.dll_6E2D3F6C060285B2.mvfrm
Library\Bee\artifacts\mvdfrm\Unity.2D.Animation.Runtime.ref.dll_BF170BA06B503859.mvfrm
Library\Bee\artifacts\mvdfrm\Unity.2D.Common.Editor.ref.dll_E108E0DA11EEB74B.mvfrm
Library\Bee\artifacts\mvdfrm\Unity.2D.Common.Runtime.ref.dll_5587D9B0E574ECB0.mvfrm
Library\Bee\artifacts\mvdfrm\Unity.2D.IK.Editor.ref.dll_62859BF718F90224.mvfrm
Library\Bee\artifacts\mvdfrm\Unity.2D.IK.Runtime.ref.dll_2430AF9EA10453C7.mvfrm
Library\Bee\artifacts\mvdfrm\Unity.2D.Path.Editor.ref.dll_55D603C2735E3B81.mvfrm
Library\Bee\artifacts\mvdfrm\Unity.2D.PixelPerfect.Editor.ref.dll_C4DE568FD79A6A9F.mvfrm
Library\Bee\artifacts\mvdfrm\Unity.2D.PixelPerfect.ref.dll_8930213CCFEEC632.mvfrm
Library\Bee\artifacts\mvdfrm\Unity.2D.Psdimporter.Editor.ref.dll_E4FF3D879E912623.mvfrm
Library\Bee\artifacts\mvdfrm\Unity.2D.Sprite.Editor.ref.dll_0169DD889AE82A51.mvfrm
Library\Bee\artifacts\mvdfrm\Unity.2D.SpriteShape.Editor.ref.dll_48833A24DB5DB23A.mvfrm
Library\Bee\artifacts\mvdfrm\Unity.2D.SpriteShape.Runtime.ref.dll_31B254B6B6E75F51.mvfrm
Library\Bee\artifacts\mvdfrm\Unity.2D.Tilemap.Editor.ref.dll_217A589FE1735158.mvfrm
Library\Bee\artifacts\mvdfrm\Unity.2D.Tilemap.Extras.Editor.ref.dll_C42BA467554B6753.mvfrm
Library\Bee\artifacts\mvdfrm\Unity.2D.Tilemap.Extras.ref.dll_152C7FE740488E3E.mvfrm
Library\Bee\artifacts\mvdfrm\Unity.Burst.Editor.ref.dll_4F7B73E229D756B2.mvfrm
Library\Bee\artifacts\mvdfrm\Unity.Burst.ref.dll_A9D47564F0C574EF.mvfrm
Library\Bee\artifacts\mvdfrm\Unity.InternalAPIEditorBridge.001.ref.dll_DB0A50572B977225.mvfrm
Library\Bee\artifacts\mvdfrm\Unity.InternalAPIEngineBridge.001.ref.dll_CD85090190A6596A.mvfrm
Library\Bee\artifacts\mvdfrm\Unity.Mathematics.Editor.ref.dll_BC6BEDEBC6F8BA8C.mvfrm
Library\Bee\artifacts\mvdfrm\Unity.Mathematics.ref.dll_09002A919DF91B75.mvfrm
Library\Bee\artifacts\mvdfrm\Unity.PlasticSCM.Editor.ref.dll_038935ADFCD4A11D.mvfrm
Library\Bee\artifacts\mvdfrm\Unity.Rider.Editor.ref.dll_07D7D7B7487B1198.mvfrm
Library\Bee\artifacts\mvdfrm\Unity.Services.Core.Analytics.ref.dll_629B993A258DF026.mvfrm
Library\Bee\artifacts\mvdfrm\Unity.Services.Core.Environments.ref.dll_5B2DDA4F5201DC36.mvfrm
Library\Bee\artifacts\mvdfrm\Unity.Services.Core.ref.dll_20594DC17355841E.mvfrm
Library\Bee\artifacts\mvdfrm\Unity.TextMeshPro.Editor.ref.dll_37E92434B2D8A6CF.mvfrm
Library\Bee\artifacts\mvdfrm\Unity.TextMeshPro.ref.dll_A4B478B3CE6E8702.mvfrm
Library\Bee\artifacts\mvdfrm\Unity.Timeline.Editor.ref.dll_0DA365A2C678CBF9.mvfrm
Library\Bee\artifacts\mvdfrm\Unity.Timeline.ref.dll_733236CB90539738.mvfrm
Library\Bee\artifacts\mvdfrm\Unity.VSCode.Editor.ref.dll_4366BA9A3B756B20.mvfrm
Library\Bee\artifacts\mvdfrm\Unity.VisualScripting.Core.Editor.ref.dll_065CC54F8DD2A924.mvfrm
Library\Bee\artifacts\mvdfrm\Unity.VisualScripting.Core.ref.dll_2F2D99604E6B235D.mvfrm
Library\Bee\artifacts\mvdfrm\Unity.VisualScripting.Flow.Editor.ref.dll_838DADFE9CB13465.mvfrm
Library\Bee\artifacts\mvdfrm\Unity.VisualScripting.Flow.ref.dll_763E79B6D074980C.mvfrm
Library\Bee\artifacts\mvdfrm\Unity.VisualScripting.SettingsProvider.Editor.ref.dll_DB47A982A779F40F.mvfrm
Library\Bee\artifacts\mvdfrm\Unity.VisualScripting.Shared.Editor.ref.dll_634EB3DA1CD7E5BE.mvfrm
Library\Bee\artifacts\mvdfrm\Unity.VisualScripting.State.Editor.ref.dll_8F55C37B46854258.mvfrm
Library\Bee\artifacts\mvdfrm\Unity.VisualScripting.State.ref.dll_06ABD95DCD3386E9.mvfrm
Library\Bee\artifacts\mvdfrm\Unity.VisualStudio.Editor.ref.dll_0788C6E0BDFBBC54.mvfrm
Library\Bee\artifacts\mvdfrm\UnityEditor.UI.ref.dll_5DAE2CC8CF4B8C9E.mvfrm
Library\Bee\artifacts\mvdfrm\UnityEngine.UI.ref.dll_1A140323D56DB509.mvfrm
Library\Bee\artifacts\mvdfrm\UnityEditor.CoreModule.dll_592359155830CD44.mvfrm
Library\Bee\artifacts\mvdfrm\UnityEditor.DeviceSimulatorModule.dll_8BD4FA1167C15FBD.mvfrm
Library\Bee\artifacts\mvdfrm\UnityEditor.DiagnosticsModule.dll_30909FE7C2ABDACB.mvfrm
Library\Bee\artifacts\mvdfrm\UnityEditor.dll_43EB2B11EE2CD911.mvfrm
Library\Bee\artifacts\mvdfrm\UnityEditor.GraphViewModule.dll_7F9D8E8664151342.mvfrm
Library\Bee\artifacts\mvdfrm\UnityEditor.PackageManagerUIModule.dll_1828D6CEAC704DA0.mvfrm
Library\Bee\artifacts\mvdfrm\UnityEditor.QuickSearchModule.dll_BBA020F51B82D724.mvfrm
Library\Bee\artifacts\mvdfrm\UnityEditor.SceneTemplateModule.dll_764CA4D682DA2225.mvfrm
Library\Bee\artifacts\mvdfrm\UnityEditor.TextCoreFontEngineModule.dll_C693A53A8DC5E242.mvfrm
Library\Bee\artifacts\mvdfrm\UnityEditor.TextCoreTextEngineModule.dll_0E7BDBAC1D499B60.mvfrm
Library\Bee\artifacts\mvdfrm\UnityEditor.UIBuilderModule.dll_D4263BA2D6CD8C76.mvfrm
Library\Bee\artifacts\mvdfrm\UnityEditor.UIElementsModule.dll_E941E24ED0447E00.mvfrm
Library\Bee\artifacts\mvdfrm\UnityEditor.UIElementsSamplesModule.dll_32CD12279ECE836D.mvfrm
Library\Bee\artifacts\mvdfrm\UnityEditor.UIServiceModule.dll_0D184D05C004DC90.mvfrm
Library\Bee\artifacts\mvdfrm\UnityEditor.UnityConnectModule.dll_51C20743A2381DFA.mvfrm
Library\Bee\artifacts\mvdfrm\UnityEngine.AccessibilityModule.dll_A8F2106D835049C2.mvfrm
Library\Bee\artifacts\mvdfrm\UnityEngine.AIModule.dll_145B2FA7DA0F9B18.mvfrm
Library\Bee\artifacts\mvdfrm\UnityEngine.AndroidJNIModule.dll_678ACB221963ECD6.mvfrm
Library\Bee\artifacts\mvdfrm\UnityEngine.AnimationModule.dll_4E230AAF3E71E7E8.mvfrm
Library\Bee\artifacts\mvdfrm\UnityEngine.ARModule.dll_CDCDF4AB372CF9E1.mvfrm
Library\Bee\artifacts\mvdfrm\UnityEngine.AssetBundleModule.dll_FF8953E67DE98C16.mvfrm
Library\Bee\artifacts\mvdfrm\UnityEngine.AudioModule.dll_C32B82F78BF30EDA.mvfrm
Library\Bee\artifacts\mvdfrm\UnityEngine.ClothModule.dll_2A13DFF2660FEDBE.mvfrm
Library\Bee\artifacts\mvdfrm\UnityEngine.ClusterInputModule.dll_D15E7C5953BFF0C0.mvfrm
Library\Bee\artifacts\mvdfrm\UnityEngine.ClusterRendererModule.dll_9181BC82D77C6D41.mvfrm
Library\Bee\artifacts\mvdfrm\UnityEngine.CoreModule.dll_7C442C680036386F.mvfrm
Library\Bee\artifacts\mvdfrm\UnityEngine.CrashReportingModule.dll_1AC5F8C71272E767.mvfrm
Library\Bee\artifacts\mvdfrm\UnityEngine.DirectorModule.dll_F3F98351F3E5AA4C.mvfrm
Library\Bee\artifacts\mvdfrm\UnityEngine.dll_768F71EA4CA065F6.mvfrm
Library\Bee\artifacts\mvdfrm\UnityEngine.DSPGraphModule.dll_F94AE4BB66467B6D.mvfrm
Library\Bee\artifacts\mvdfrm\UnityEngine.GameCenterModule.dll_91D8153CDFA4DDC7.mvfrm
Library\Bee\artifacts\mvdfrm\UnityEngine.GIModule.dll_AC9778B575BE8332.mvfrm
Library\Bee\artifacts\mvdfrm\UnityEngine.GridModule.dll_59B54856188ACE66.mvfrm
Library\Bee\artifacts\mvdfrm\UnityEngine.HotReloadModule.dll_CF6BC8B519A5036A.mvfrm
Library\Bee\artifacts\mvdfrm\UnityEngine.ImageConversionModule.dll_FD73BA3359A12535.mvfrm
Library\Bee\artifacts\mvdfrm\UnityEngine.IMGUIModule.dll_FB8B225E5224A2BB.mvfrm
Library\Bee\artifacts\mvdfrm\UnityEngine.InputLegacyModule.dll_90CE6F0515DB4207.mvfrm
Library\Bee\artifacts\mvdfrm\UnityEngine.InputModule.dll_29A14AA8022B337E.mvfrm
Library\Bee\artifacts\mvdfrm\UnityEngine.JSONSerializeModule.dll_090999A9828BAA4C.mvfrm
Library\Bee\artifacts\mvdfrm\UnityEngine.LocalizationModule.dll_0FAB46ABEB3BE3B9.mvfrm
Library\Bee\artifacts\mvdfrm\UnityEngine.ParticleSystemModule.dll_6DD84213808472F5.mvfrm
Library\Bee\artifacts\mvdfrm\UnityEngine.PerformanceReportingModule.dll_7BF0647B27B3FC2E.mvfrm
Library\Bee\artifacts\mvdfrm\UnityEngine.Physics2DModule.dll_9AC8FA9FDF6EDF7D.mvfrm
Library\Bee\artifacts\mvdfrm\UnityEngine.PhysicsModule.dll_1B9D0FD9E57A78EB.mvfrm
Library\Bee\artifacts\mvdfrm\UnityEngine.ProfilerModule.dll_263FBC888D3F3159.mvfrm
Library\Bee\artifacts\mvdfrm\UnityEngine.RuntimeInitializeOnLoadManagerInitializerModule.dll_67E35E2C6B6ACA46.mvfrm
Library\Bee\artifacts\mvdfrm\UnityEngine.ScreenCaptureModule.dll_22F1472E96F7D6AE.mvfrm
Library\Bee\artifacts\mvdfrm\UnityEngine.SharedInternalsModule.dll_8184F908D0CF2085.mvfrm
Library\Bee\artifacts\mvdfrm\UnityEngine.SpriteMaskModule.dll_7B0487CD01147341.mvfrm
Library\Bee\artifacts\mvdfrm\UnityEngine.SpriteShapeModule.dll_18EA8141338BC420.mvfrm
Library\Bee\artifacts\mvdfrm\UnityEngine.StreamingModule.dll_02B7F7FF8DF99F26.mvfrm
Library\Bee\artifacts\mvdfrm\UnityEngine.SubstanceModule.dll_DF630C48D94C9D34.mvfrm
Library\Bee\artifacts\mvdfrm\UnityEngine.SubsystemsModule.dll_E5B1EE2ECF5C5B54.mvfrm
Library\Bee\artifacts\mvdfrm\UnityEngine.TerrainModule.dll_35E38B48BB38C1D9.mvfrm
Library\Bee\artifacts\mvdfrm\UnityEngine.TerrainPhysicsModule.dll_6E52EAE699C76D82.mvfrm
Library\Bee\artifacts\mvdfrm\UnityEngine.TextCoreFontEngineModule.dll_44F3208DA0C3A10D.mvfrm
Library\Bee\artifacts\mvdfrm\UnityEngine.TextCoreTextEngineModule.dll_8CDB56FF30475A2B.mvfrm
Library\Bee\artifacts\mvdfrm\UnityEngine.TextRenderingModule.dll_4C30B9394E2F56A3.mvfrm
Library\Bee\artifacts\mvdfrm\UnityEngine.TilemapModule.dll_D4DFF2C9D2F5A2E2.mvfrm
Library\Bee\artifacts\mvdfrm\UnityEngine.TLSModule.dll_53A4950EAEF816FF.mvfrm
Library\Bee\artifacts\mvdfrm\UnityEngine.UIElementsModule.dll_E9F04F96D288974B.mvfrm
Library\Bee\artifacts\mvdfrm\UnityEngine.UIElementsNativeModule.dll_62A28B641DE8BDC2.mvfrm
Library\Bee\artifacts\mvdfrm\UnityEngine.UIModule.dll_0FCECDD53656A0C4.mvfrm
Library\Bee\artifacts\mvdfrm\UnityEngine.UmbraModule.dll_3E002F101919BA4D.mvfrm
Library\Bee\artifacts\mvdfrm\UnityEngine.UNETModule.dll_0EEA74514D452DE8.mvfrm
Library\Bee\artifacts\mvdfrm\UnityEngine.UnityAnalyticsModule.dll_8D77B2DD2CABC4F1.mvfrm
Library\Bee\artifacts\mvdfrm\UnityEngine.UnityConnectModule.dll_3F218B529CC01EA5.mvfrm
Library\Bee\artifacts\mvdfrm\UnityEngine.UnityCurlModule.dll_813FABE0AE85D9D5.mvfrm
Library\Bee\artifacts\mvdfrm\UnityEngine.UnityTestProtocolModule.dll_EE8FC819F8C9D8C3.mvfrm
Library\Bee\artifacts\mvdfrm\UnityEngine.UnityWebRequestAssetBundleModule.dll_508E2730D1B0B482.mvfrm
Library\Bee\artifacts\mvdfrm\UnityEngine.UnityWebRequestAudioModule.dll_F3ECB859AE1EC6C6.mvfrm
Library\Bee\artifacts\mvdfrm\UnityEngine.UnityWebRequestModule.dll_0F12C1DD6495BFB4.mvfrm
Library\Bee\artifacts\mvdfrm\UnityEngine.UnityWebRequestTextureModule.dll_869E4ADE8C6A915B.mvfrm
Library\Bee\artifacts\mvdfrm\UnityEngine.UnityWebRequestWWWModule.dll_579D9C5B20071697.mvfrm
Library\Bee\artifacts\mvdfrm\UnityEngine.VehiclesModule.dll_6BBC7CD16E0F79E7.mvfrm
Library\Bee\artifacts\mvdfrm\UnityEngine.VFXModule.dll_D4832D7D8565806C.mvfrm
Library\Bee\artifacts\mvdfrm\UnityEngine.VideoModule.dll_E83507624E852A7F.mvfrm
Library\Bee\artifacts\mvdfrm\UnityEngine.VirtualTexturingModule.dll_872F3FD2F6973E4D.mvfrm
Library\Bee\artifacts\mvdfrm\UnityEngine.VRModule.dll_62A0F45AD811263C.mvfrm
Library\Bee\artifacts\mvdfrm\UnityEngine.WindModule.dll_F2930790916CB6D8.mvfrm
Library\Bee\artifacts\mvdfrm\UnityEngine.XRModule.dll_955FB75F614B739A.mvfrm
Library\Bee\artifacts\mvdfrm\Unity.Burst.Cecil.dll_DBB3A126CE9B895E.mvfrm
Library\Bee\artifacts\mvdfrm\Unity.Burst.Cecil.Mdb.dll_81D02B48B7A7341B.mvfrm
Library\Bee\artifacts\mvdfrm\Unity.Burst.Cecil.Pdb.dll_9922A3B8365C359E.mvfrm
Library\Bee\artifacts\mvdfrm\Unity.Burst.Cecil.Rocks.dll_3CDA2C6B3604B57E.mvfrm
Library\Bee\artifacts\mvdfrm\Unity.Burst.Unsafe.dll_A229F0A6042CD9D5.mvfrm
Library\Bee\artifacts\mvdfrm\Unity.VisualScripting.Antlr3.Runtime.dll_B68AC303F25CFAAE.mvfrm